…
``` r
pgkg_dir <- paste0(tmp, "/test")
map_data(pgkg_dir, "Cambodia", dictionary::kh_province, dictionary::kh_history, from = "1980", to = "2018")
#> ✔ Creating 'data-raw/'
#> ✔ Adding '^data-raw$' to '.Rbuildignore'
#> Next:
#> ● Add data creation scripts in 'data-raw/'
#> ● Use `usethis::use_data()` to add data to package
#> Simple feature collection with 23 features and 1 field
#> geometry type:  GEOMETRY
#> dimension:      XY
#> bbox:           xmin: 102.3355 ymin: 9.91361 xmax: 107.6303 ymax: 14.68817
#> epsg (SRID):    4326
#> proj4string:    +proj=longlat +datum=WGS84 +no_defs
#> # A tibble: 23 x 2
#>    province                                                       geometry
#>    <chr>                                                    <GEOMETRY [°]>
#>  1 Banteay Meanc… POLYGON ((103.4153 13.55372, 103.4148 13.55336, 103.414…
#>  2 Batdambang     POLYGON ((102.5209 12.66142, 102.52 12.66127, 102.5192 …
#>  3 Kampong Cham   POLYGON ((106.2983 11.6803, 106.2984 11.68044, 106.2984…
#>  4 Kampong Chhna… MULTIPOLYGON (((104.7265 11.81627, 104.7259 11.81546, 1…
#>  5 Kampong Spoe   POLYGON ((104.4795 11.1239, 104.4795 11.12367, 104.4789…
#>  6 Kampong Thum   POLYGON ((105.1992 12.21036, 105.1996 12.20916, 105.200…
#>  7 Kampot         MULTIPOLYGON (((104.4399 10.4224, 104.4398 10.42238, 10…
#>  8 Kandal         POLYGON ((105.1889 10.91159, 105.189 10.91179, 105.1809…
#>  9 Kaoh Kong      MULTIPOLYGON (((102.8862 9.931321, 102.8865 9.931264, 1…
#> 10 Kep            POLYGON ((104.3426 10.49478, 104.3422 10.4945, 104.3419…
#> # ... with 13 more rows
#> Simple feature collection with 24 features and 1 field
#> geometry type:  GEOMETRY
#> dimension:      XY
#> bbox:           xmin: 102.3355 ymin: 9.91361 xmax: 107.6303 ymax: 14.68817
#> epsg (SRID):    4326
#> proj4string:    +proj=longlat +datum=WGS84 +no_defs
#> # A tibble: 24 x 2
#>    province                                                       geometry
#>    <chr>                                                    <GEOMETRY [°]>
#>  1 Banteay Meanc… POLYGON ((103.4153 13.55372, 103.4148 13.55336, 103.414…
#>  2 Batdambang     POLYGON ((102.9906 12.47703, 102.9901 12.47669, 102.989…
#>  3 Kampong Cham   POLYGON ((106.2983 11.6803, 106.2984 11.68044, 106.2984…
#>  4 Kampong Chhna… MULTIPOLYGON (((104.7265 11.81627, 104.7259 11.81546, 1…
#>  5 Kampong Spoe   POLYGON ((104.4795 11.1239, 104.4795 11.12367, 104.4789…
#>  6 Kampong Thum   POLYGON ((105.1992 12.21036, 105.1996 12.20916, 105.200…
#>  7 Kampot         MULTIPOLYGON (((104.4399 10.4224, 104.4398 10.42238, 10…
#>  8 Kandal         POLYGON ((105.1889 10.91159, 105.189 10.91179, 105.1809…
#>  9 Kaoh Kong      MULTIPOLYGON (((102.8862 9.931321, 102.8865 9.931264, 1…
#> 10 Kep            POLYGON ((104.3426 10.49478, 104.3422 10.4945, 104.3419…
#> # ... with 14 more rows
#> Simple feature collection with 25 features and 1 field
#> geometry type:  GEOMETRY
#> dimension:      XY
#> bbox:           xmin: 102.3355 ymin: 9.91361 xmax: 107.6303 ymax: 14.68817
#> epsg (SRID):    4326
#> proj4string:    +proj=longlat +datum=WGS84 +no_defs
#> # A tibble: 25 x 2
#>    province                                                       geometry
#>    <chr>                                                    <GEOMETRY [°]>
#>  1 Banteay Meanc… POLYGON ((103.4153 13.55372, 103.4148 13.55336, 103.414…
#>  2 Batdambang     POLYGON ((102.9906 12.47703, 102.9901 12.47669, 102.989…
#>  3 Kampong Cham   POLYGON ((105.4508 11.86398, 105.4505 11.86166, 105.450…
#>  4 Kampong Chhna… MULTIPOLYGON (((104.7265 11.81627, 104.7259 11.81546, 1…
#>  5 Kampong Spoe   POLYGON ((104.4795 11.1239, 104.4795 11.12367, 104.4789…
#>  6 Kampong Thum   POLYGON ((105.1992 12.21036, 105.1996 12.20916, 105.200…
#>  7 Kampot         MULTIPOLYGON (((104.4399 10.4224, 104.4398 10.42238, 10…
#>  8 Kandal         POLYGON ((105.1889 10.91159, 105.189 10.91179, 105.1809…
#>  9 Kaoh Kong      MULTIPOLYGON (((102.8862 9.931321, 102.8865 9.931264, 1…
#> 10 Kep            POLYGON ((104.3426 10.49478, 104.3422 10.4945, 104.3419…
#> # ... with 15 more rows
…
